<?xml version="1.0" encoding="utf-8"?>
<!-- Generator: Adobe Illustrator 16.0.0, SVG Export Plug-In . SVG Version: 6.00 Build 0)  -->
<!DOCTYPE svg PUBLIC "-//W3C//DTD SVG 1.1//EN" "http://www.w3.org/Graphics/SVG/1.1/DTD/svg11.dtd">
<svg version="1.1" id="Layer_1" xmlns="http://www.w3.org/2000/svg" xmlns:xlink="http://www.w3.org/1999/xlink" x="0px" y="0px"
	 width="150px" height="150px" viewBox="0 0 150 150" enable-background="new 0 0 150 150" xml:space="preserve">
<g>
	<path fill="#FFFFFF" d="M40.587,133.794c-3.072,0-6.145-0.008-9.219-0.03c-9-0.06-15.546-6.662-15.558-15.696
		c-0.014-9.039-0.014-18.075-0.012-27.111c0.002-11.389,0.002-22.776-0.027-34.163c-0.007-4.729,2.027-8.348,6.044-10.763
		c6.905-4.15,13.814-8.294,20.725-12.439c8.607-5.165,17.216-10.328,25.818-15.503c4.412-2.659,9.046-2.525,14.093,0.539
		c3.39,2.052,6.771,4.122,10.152,6.191c10.097,6.178,20.538,12.568,31.03,18.385c7.896,4.374,11.141,10.172,10.523,18.8
		c-0.414,5.827-0.314,11.861-0.221,17.695c0.045,2.645,0.087,5.291,0.086,7.935l0.003,10.267c0.005,6.665,0.011,13.329-0.012,19.996
		c-0.027,9.307-6.575,15.835-15.921,15.872c-6.643,0.031-13.289,0.031-19.936,0c-7.49-0.035-11.979-4.543-12.011-12.059
		c-0.017-3.636-0.014-7.273-0.01-10.91c0.003-3.174,0.005-6.346-0.005-9.52c-0.013-2.581-0.088-2.656-2.73-2.665
		c-5.77-0.019-11.533-0.029-17.295,0.004c-2.269,0.014-2.404,0.151-2.412,2.465c-0.017,3.444-0.014,6.886-0.012,10.326
		c0.003,3.454,0.007,6.907-0.01,10.361c-0.031,7.373-4.669,11.97-12.102,11.997C47.911,133.783,44.25,133.794,40.587,133.794z
		 M74.777,22.341c-1.076,0-2.142,0.327-3.257,0.999c-8.605,5.179-17.217,10.343-25.828,15.508
		c-6.909,4.144-13.817,8.289-20.72,12.438c-2.156,1.297-3.074,2.939-3.071,5.494c0.029,11.391,0.029,22.784,0.028,34.177
		c-0.002,9.033-0.002,18.066,0.012,27.101c0.009,5.602,3.902,9.538,9.469,9.575c6.72,0.05,13.428,0.031,20.136,0.004
		c4.017-0.014,5.976-1.942,5.993-5.896c0.017-3.442,0.014-6.885,0.012-10.325c-0.003-3.454-0.007-6.906,0.01-10.36
		c0.022-5.65,2.885-8.535,8.506-8.569c5.784-0.034,11.569-0.022,17.353-0.004c6.005,0.02,8.815,2.808,8.841,8.773
		c0.011,3.186,0.009,6.366,0.006,9.548c-0.004,3.627-0.007,7.252,0.01,10.879c0.018,4.1,1.839,5.935,5.907,5.954
		c6.626,0.03,13.252,0.03,19.882,0c5.945-0.024,9.798-3.856,9.814-9.761c0.022-6.66,0.018-13.316,0.012-19.972l-0.003-10.275
		c0.002-2.608-0.041-5.22-0.084-7.832c-0.098-5.965-0.198-12.135,0.236-18.23c0.446-6.249-1.556-9.771-7.382-13.002
		c-10.607-5.88-21.104-12.304-31.257-18.516c-3.374-2.065-6.747-4.13-10.13-6.178C77.575,22.84,76.105,22.341,74.777,22.341z"/>
</g>
</svg>
