<?xml version="1.0" encoding="utf-8"?>
<!-- Generator: Adobe Illustrator 16.0.0, SVG Export Plug-In . SVG Version: 6.00 Build 0)  -->
<!DOCTYPE svg PUBLIC "-//W3C//DTD SVG 1.1//EN" "http://www.w3.org/Graphics/SVG/1.1/DTD/svg11.dtd">
<svg version="1.1" id="Layer_1" xmlns="http://www.w3.org/2000/svg" xmlns:xlink="http://www.w3.org/1999/xlink" x="0px" y="0px"
	 width="150px" height="150px" viewBox="0 0 150 150" enable-background="new 0 0 150 150" xml:space="preserve">
<path id="XMLID_6_" fill="#FFFFFF" d="M130.527,106.845c0,2.064-0.748,3.896-2.232,5.463c-1.49,1.559-3.387,2.354-5.703,2.354
	H27.406c-2.316,0-4.213-0.795-5.7-2.354c-1.487-1.566-2.232-3.398-2.232-5.463c0-2.047,0.745-3.908,2.232-5.566l0.745-0.998
	c3.804-3.967,6.604-7.857,8.426-11.648c2.975-6.623,4.462-15.117,4.462-25.533c0-9.596,2.975-17.923,8.924-25.031
	c5.949-7.115,13.549-11.58,22.804-13.384v-5.213c0-2.151,0.78-4.013,2.354-5.572c1.577-1.566,3.436-2.354,5.581-2.354
	c2.143,0,4,0.789,5.573,2.354c1.574,1.56,2.357,3.421,2.357,5.572v5.213c9.26,1.804,16.855,6.269,22.805,13.384
	c5.951,7.108,8.926,15.436,8.926,25.031c0,10.416,1.486,18.91,4.461,25.533c1.82,3.791,4.619,7.682,8.43,11.648
	c0.33,0.494,0.582,0.818,0.742,0.998C129.779,102.937,130.527,104.798,130.527,106.845z M113.67,102.757
	c-7.275-9.742-10.91-22.877-10.91-39.408v-0.25c0-4.951-1.238-9.596-3.715-13.875c-2.479-4.297-5.861-7.688-10.164-10.165
	c-4.301-2.481-8.924-3.717-13.879-3.717c-4.958,0-9.583,1.235-13.882,3.717c-4.303,2.477-7.687,5.868-10.168,10.165
	c-2.477,4.279-3.715,8.924-3.715,13.875v0.25c0,16.531-3.629,29.666-10.906,39.408H113.67z M63.844,133.873
	c-3.134-3.051-4.708-6.813-4.708-11.283h31.727c0,4.471-1.57,8.232-4.709,11.283c-3.137,3.051-6.855,4.582-11.153,4.582
	C70.702,138.455,66.979,136.923,63.844,133.873z"/>
</svg>
