<?xml version="1.0" encoding="utf-8"?>
<!-- Generator: Adobe Illustrator 16.0.0, SVG Export Plug-In . SVG Version: 6.00 Build 0)  -->
<!DOCTYPE svg PUBLIC "-//W3C//DTD SVG 1.1//EN" "http://www.w3.org/Graphics/SVG/1.1/DTD/svg11.dtd">
<svg version="1.1" id="Layer_2" xmlns="http://www.w3.org/2000/svg" xmlns:xlink="http://www.w3.org/1999/xlink" x="0px" y="0px"
	 width="250px" height="250px" viewBox="0 0 250 250" enable-background="new 0 0 250 250" xml:space="preserve">
<g>
	<path fill-rule="evenodd" clip-rule="evenodd" fill="#122A2C" d="M208.919,122.909c-5.285-34.22-25.083-57.888-58.041-68.448
		c-33.39-10.698-63.306-2.544-87.735,22.635c-32.919,33.933-30.319,89.829,5.059,121.143c0.867,0.769,1.586,1.976,3.082,1.354
		c4.016-3.574,9.069-5.402,13.623-8.068c4.577-2.677,9.266-5.173,13.958-7.647c4.242-2.239,6.096-5.664,6.302-10.452
		c0.241-5.76-0.229-11.048-4.181-15.769c-2.245-2.678-3.402-6.176-4.554-9.533c-0.955-2.787-1.51-5.704-3.946-7.831
		c-1.249-1.094-1.513-2.907-1.513-4.617c-0.003-3.871-0.012-7.741,0-11.611c0.006-1.228-0.012-2.609,0.822-3.495
		c2.427-2.574,1.945-5.697,1.954-8.75c0.009-3.427,0.033-6.857-0.015-10.286c-0.173-12.911,6.014-21.189,18.597-24.186
		c9.856-2.348,19.77-2.343,29.382,1.279c9.53,3.593,14.646,11.34,14.587,21.526c-0.023,3.984-0.041,7.963-0.041,11.944
		c0,2.947-0.361,5.907,1.912,8.438c1.131,1.259,0.876,3.139,0.879,4.802c0.006,2.875-0.086,5.754,0.023,8.626
		c0.158,4.113-1.061,7.421-5.001,9.259c-1.307,0.609-1.463,1.85-1.877,2.96c-2.459,6.579-5.781,12.658-10.362,18.015
		c0.46,3.891,0.121,7.781,0.024,11.673c1.172,4.499,4.083,7.249,8.275,9.207c8,3.735,15.836,7.827,23.721,11.806
		c1.566,0.788,3.211,1.485,4.41,2.857c1.475,1.061,2.224-0.254,3.046-1.011C203.511,178.188,213.531,152.771,208.919,122.909z"/>
	<path fill-rule="evenodd" clip-rule="evenodd" fill="#F7F9FA" d="M141.859,175.868c-1.499-3.887-1.467-7.779-0.024-11.673
		C142.297,168.083,141.956,171.976,141.859,175.868z"/>
</g>
</svg>
